{
  Procedure : { Organization : "Base2art", Product : "NuGet-Package-Pack", Version : "1.0.0.0" },
  ProcedureParameters : { Organization : "Base2art", Product : "NuGet-Package-Pack-Parameters", Version : "1.0.0.0" },
  Parameters : { 
    VersionPullLocation: "AssemblyInformationalVersion",
    NuspecOrProjectFile: "Base2art.Bob.Executor.LogFormatters.nuspec"
  }
}